<?xml version="1.0" standalone="no"?>
<!DOCTYPE svg PUBLIC "-//W3C//DTD SVG 1.1//EN" "http://www.w3.org/Graphics/SVG/1.1/DTD/svg11.dtd" >
<svg xmlns="http://www.w3.org/2000/svg">
<metadata>Generated by IcoMoon</metadata>
<defs>
<font id="dreamicons" horiz-adv-x="1024">
<font-face units-per-em="1024" ascent="960" descent="-64" />
<missing-glyph horiz-adv-x="1024" />
<glyph unicode="&#x20;" horiz-adv-x="512" d="" />
<glyph unicode="&#xe900;" glyph-name="close" d="M1024 810.667l-149.333 149.333-362.667-362.667-362.667 362.667-149.333-149.333 362.667-362.667-362.667-362.667 149.333-149.333 362.667 362.667 362.667-362.667 149.333 149.333-362.667 362.667z" />
<glyph unicode="&#xe901;" glyph-name="leftarrow" d="M1024 362.667h-682.667l341.333-341.333h-256l-426.667 426.667 426.667 426.667h256l-341.333-341.333h682.667z" />
<glyph unicode="&#xe905;" glyph-name="rightarrow" d="M0 362.667h682.667l-341.333-341.333h256l426.667 426.667-426.667 426.667h-256l341.333-341.333h-682.667z" />
<glyph unicode="&#xe906;" glyph-name="plus" d="M43.008 563.584h937.984v-231.296h-937.984v231.296zM396.416 916.992h231.296v-937.984h-231.296v937.984z" />
<glyph unicode="&#xe908;" glyph-name="check" horiz-adv-x="1176" d="M375.641 324.103l-188.446 183.783-187.195-199.398 372.488-372.488 803.074 825.013-171.361 198.987z" />
<glyph unicode="&#xe90a;" glyph-name="information" d="M433.679 203.461l171.861-0.089v110.368c0 36.171 16.862 70.346 61.981 99.943 45.115 29.583 171.062 89.616 171.062 247.455 0 157.845-132.261 266.337-243.438 289.354-111.16 23.017-231.604 7.873-317.076-85.766-76.538-83.85-92.666-150.176-92.666-296.51h171.502v34.012c0 77.973 9.020 160.285 120.42 182.795 60.802 12.288 117.8-6.785 151.607-39.851 38.673-37.813 38.985-123.019-22.639-165.444l-96.668-65.768c-56.388-36.171-75.724-76.441-75.724-135.629zM432.774-63.986v176.748h174v-176.748z" />
<glyph unicode="&#xe90b;" glyph-name="gear" d="M974.942 356.429c18.867 0 36.446 15.3 39.014 34.005 0 0 3.601 26.291 3.601 57.557s-3.601 57.557-3.601 57.557c-2.594 18.714-20.147 34.014-39.014 34.014h-97.562c-18.893 0-38.502 12.041-43.571 26.752s-12.066 61.909 1.289 75.255l68.949 68.958c13.346 13.355 14.387 36.147 2.295 50.662l-81.126 81.152c-14.515 12.1-37.299 11.076-50.671-2.287l-68.949-68.958c-13.346-13.363-35.61-18.739-49.434-11.964s-52.591 35.354-52.591 54.238v97.562c0 18.884-15.309 36.446-34.005 39.014 0 0-26.291 3.618-57.557 3.618s-57.557-3.618-57.557-3.618c-18.714-2.569-34.031-20.13-34.031-39.014v-97.562c0-18.884-12.032-38.494-26.752-43.571s-61.909-12.066-75.264 1.289l-68.958 68.958c-13.355 13.355-36.147 14.387-50.654 2.295l-81.143-81.143c-12.1-14.515-11.076-37.299 2.287-50.662l68.949-68.958c13.355-13.355 18.748-35.601 11.964-49.425s-35.354-52.591-54.238-52.591h-97.545c-18.884 0-36.446-15.309-39.023-34.014 0 0-3.618-26.291-3.618-57.549 0-31.275 3.618-57.549 3.618-57.549 2.569-18.722 20.13-34.022 39.023-34.022h97.562c18.884 0 38.494-12.023 43.563-26.752 5.077-14.72 12.066-61.901-1.297-75.247l-68.949-68.958c-13.355-13.355-14.387-36.147-2.287-50.671l81.135-81.143c14.515-12.092 37.291-11.085 50.654 2.295l68.958 68.949c13.355 13.346 35.601 18.731 49.434 11.955s52.582-35.354 52.582-54.229v-97.562c0-18.876 15.309-36.437 34.031-38.997 0 0 26.283-3.618 57.557-3.618s57.557 3.618 57.557 3.618c18.714 2.569 34.005 20.122 34.005 38.997v97.562c0 18.884 12.041 38.502 26.761 43.571 14.729 5.077 61.918 12.058 75.264-1.289l68.949-68.958c13.355-13.338 36.147-14.387 50.671-2.287l81.126 81.118c12.092 14.515 11.085 37.291-2.295 50.671l-68.949 68.949c-13.355 13.346-18.748 35.601-11.955 49.434 6.775 13.824 35.354 52.591 54.229 52.591h97.57zM512 262.938c-102.204 0-185.054 82.833-185.054 185.062 0 102.195 82.85 185.054 185.054 185.054s185.062-82.85 185.062-185.054c0-102.204-82.859-185.062-185.062-185.062z" />
<glyph unicode="&#xe90c;" glyph-name="deny" d="M512 960c-282.747 0-512-229.253-512-512s229.253-512 512-512c282.747 0 512 229.253 512 512s-229.253 512-512 512zM512 832c82.883 0 159.119-27.011 221.88-71.76l-534.26-533.98c-44.739 62.751-71.62 138.991-71.62 221.74 0 211.753 172.247 384 384 384zM824.38 669.74c44.739-62.751 71.62-138.991 71.62-221.74 0-211.753-172.247-384-384-384-82.883 0-159.119 27.011-221.88 71.76z" />
<glyph unicode="&#xf015;" glyph-name="home" horiz-adv-x="951" d="M804.571 384v-274.286c0-20-16.571-36.571-36.571-36.571h-219.429v219.429h-146.286v-219.429h-219.429c-20 0-36.571 16.571-36.571 36.571v274.286c0 1.143 0.571 2.286 0.571 3.429l328.571 270.857 328.571-270.857c0.571-1.143 0.571-2.286 0.571-3.429zM932 423.428l-35.429-42.286c-2.857-3.429-7.429-5.714-12-6.286h-1.714c-4.571 0-8.571 1.143-12 4l-395.429 329.714-395.429-329.714c-4-2.857-8.571-4.571-13.714-4-4.571 0.571-9.143 2.857-12 6.286l-35.429 42.286c-6.286 7.429-5.143 19.429 2.286 25.714l410.857 342.286c24 20 62.857 20 86.857 0l139.429-116.571v111.429c0 10.286 8 18.286 18.286 18.286h109.714c10.286 0 18.286-8 18.286-18.286v-233.143l125.143-104c7.429-6.286 8.571-18.286 2.286-25.714z" />
<glyph unicode="&#xf021;" glyph-name="reload" horiz-adv-x="878" d="M863.429 347.428c0-1.143 0-2.857-0.571-4-48.571-202.286-215.429-343.429-426.286-343.429-111.429 0-219.429 44-300.571 121.143l-73.714-73.714c-6.857-6.857-16-10.857-25.714-10.857-20 0-36.571 16.571-36.571 36.571v256c0 20 16.571 36.571 36.571 36.571h256c20 0 36.571-16.571 36.571-36.571 0-9.714-4-18.857-10.857-25.714l-78.286-78.286c53.714-50.286 125.143-78.857 198.857-78.857 101.714 0 196 52.571 249.143 139.429 13.714 22.286 20.571 44 30.286 66.857 2.857 8 8.571 13.143 17.143 13.143h109.714c10.286 0 18.286-8.571 18.286-18.286zM877.714 804.571v-256c0-20-16.571-36.571-36.571-36.571h-256c-20 0-36.571 16.571-36.571 36.571 0 9.714 4 18.857 10.857 25.714l78.857 78.857c-54.286 50.286-125.714 78.286-199.429 78.286-101.714 0-196-52.571-249.143-139.429-13.714-22.286-20.571-44-30.286-66.857-2.857-8-8.571-13.143-17.143-13.143h-113.714c-10.286 0-18.286 8.571-18.286 18.286v4c49.143 202.857 217.714 343.429 428.571 343.429 112 0 221.143-44.571 302.286-121.143l74.286 73.714c6.857 6.857 16 10.857 25.714 10.857 20 0 36.571-16.571 36.571-36.571z" />
<glyph unicode="&#xf02e;" glyph-name="bookmark" horiz-adv-x="731" d="M665.143 877.714c8.571 0 17.143-1.714 25.143-5.143 25.143-9.714 41.143-33.143 41.143-58.857v-736.571c0-25.714-16-49.143-41.143-58.857-8-3.429-16.571-4.571-25.143-4.571-17.714 0-34.286 6.286-47.429 18.286l-252 242.286-252-242.286c-13.143-12-29.714-18.857-47.429-18.857-8.571 0-17.143 1.714-25.143 5.143-25.143 9.714-41.143 33.143-41.143 58.857v736.571c0 25.714 16 49.143 41.143 58.857 8 3.429 16.571 5.143 25.143 5.143h598.857z" />
<glyph unicode="&#xf02f;" glyph-name="print" horiz-adv-x="951" d="M219.429 73.143h512v146.286h-512v-146.286zM219.429 438.857h512v219.429h-91.429c-30.286 0-54.857 24.571-54.857 54.857v91.429h-365.714v-365.714zM877.714 402.286c0 20-16.571 36.571-36.571 36.571s-36.571-16.571-36.571-36.571 16.571-36.571 36.571-36.571 36.571 16.571 36.571 36.571zM950.857 402.286v-237.714c0-9.714-8.571-18.286-18.286-18.286h-128v-91.429c0-30.286-24.571-54.857-54.857-54.857h-548.571c-30.286 0-54.857 24.571-54.857 54.857v91.429h-128c-9.714 0-18.286 8.571-18.286 18.286v237.714c0 60 49.714 109.714 109.714 109.714h36.571v310.857c0 30.286 24.571 54.857 54.857 54.857h384c30.286 0 72-17.143 93.714-38.857l86.857-86.857c21.714-21.714 38.857-63.429 38.857-93.714v-146.286h36.571c60 0 109.714-49.714 109.714-109.714z" />
<glyph unicode="&#xf065;" glyph-name="maximize" horiz-adv-x="878" d="M431.429 347.428c0-4.571-2.286-9.714-5.714-13.143l-189.714-189.714 82.286-82.286c6.857-6.857 10.857-16 10.857-25.714 0-20-16.571-36.571-36.571-36.571h-256c-20 0-36.571 16.571-36.571 36.571v256c0 20 16.571 36.571 36.571 36.571 9.714 0 18.857-4 25.714-10.857l82.286-82.286 189.714 189.714c3.429 3.429 8.571 5.714 13.143 5.714s9.714-2.286 13.143-5.714l65.143-65.143c3.429-3.429 5.714-8.571 5.714-13.143zM877.714 841.143v-256c0-20-16.571-36.571-36.571-36.571-9.714 0-18.857 4-25.714 10.857l-82.286 82.286-189.714-189.714c-3.429-3.429-8.571-5.714-13.143-5.714s-9.714 2.286-13.143 5.714l-65.143 65.143c-3.429 3.429-5.714 8.571-5.714 13.143s2.286 9.714 5.714 13.143l189.714 189.714-82.286 82.286c-6.857 6.857-10.857 16-10.857 25.714 0 20 16.571 36.571 36.571 36.571h256c20 0 36.571-16.571 36.571-36.571z" />
<glyph unicode="&#xf0a3;" glyph-name="new" horiz-adv-x="878" d="M786.286 438.857l78.857-77.143c10.857-10.286 14.857-25.714 11.429-40-4-14.286-15.429-25.714-29.714-29.143l-107.429-27.429 30.286-106.286c4-14.286 0-29.714-10.857-40-10.286-10.857-25.714-14.857-40-10.857l-106.286 30.286-27.429-107.429c-3.429-14.286-14.857-25.714-29.143-29.714-3.429-0.571-7.429-1.143-10.857-1.143-10.857 0-21.714 4.571-29.143 12.571l-77.143 78.857-77.143-78.857c-10.286-10.857-25.714-14.857-40-11.429-14.857 4-25.714 15.429-29.143 29.714l-27.429 107.429-106.286-30.286c-14.286-4-29.714 0-40 10.857-10.857 10.286-14.857 25.714-10.857 40l30.286 106.286-107.429 27.429c-14.286 3.429-25.714 14.857-29.714 29.143-3.429 14.286 0.571 29.714 11.429 40l78.857 77.143-78.857 77.143c-10.857 10.286-14.857 25.714-11.429 40 4 14.286 15.429 25.714 29.714 29.143l107.429 27.429-30.286 106.286c-4 14.286 0 29.714 10.857 40 10.286 10.857 25.714 14.857 40 10.857l106.286-30.286 27.429 107.429c3.429 14.286 14.857 25.714 29.143 29.143 14.286 4 29.714 0 40-10.857l77.143-79.429 77.143 79.429c10.286 10.857 25.143 14.857 40 10.857 14.286-3.429 25.714-14.857 29.143-29.143l27.429-107.429 106.286 30.286c14.286 4 29.714 0 40-10.857 10.857-10.286 14.857-25.714 10.857-40l-30.286-106.286 107.429-27.429c14.286-3.429 25.714-14.857 29.714-29.143 3.429-14.286-0.571-29.714-11.429-40z" />
</font></defs></svg>